[
    {
        "id" : "1098345366",
        "id_tipodocumento" : "CC",
        "nombre" : "Carlos Sanchez",
        "telefono" : "3156366733",
        "direccion" : "Calle 9 Cra 27",
        "email" : "prueba@gmail.com",
        "activo": true
    },
    {
        "id" : "1098241555",
        "id_tipodocumento" : "PA",
        "nombre" : "Pedro Perez",
        "telefono" : "3025156633",
        "direccion" : "Calle 19 Cra 7",
        "email" : "prueba2@gmail.com",
        "activo": true
    },
    {
        "id" : "900524525-2",
        "id_tipodocumento" : "NIT",
        "nombre" : "La tienda de Luis",
        "telefono" : "3205236633",
        "direccion" : "Calle 56 Cra 27",
        "email" : "latiendadeluis@gmail.com",
        "activo": true
    }   
]